[
    {
        "id": "1",
        "id_category": "1",
        "isFavorite": "1",
        "lessonNameEnglish": "Contracts",
        "lessonNameVietNamese": "Hợp đồng",
        "noteLessonEnglish": "",
        "percent_learned": "",
        "timeNeedToLearn": ""
    },
    {
        "id": "2",
        "id_category": "1",
        "isFavorite": "1",
        "lessonNameEnglish": "Marketing",
        "lessonNameVietNamese": "Nghiên cứu thị trường",
        "noteLessonEnglish": "",
        "percent_learned": "",
        "timeNeedToLearn": ""
    },
    {
        "id": "3",
        "id_category": "1",
        "isFavorite": "1",
        "lessonNameEnglish": "Warranties",
        "lessonNameVietNamese": "Sự bảo hành",
        "noteLessonEnglish": "",
        "percent_learned": "",
        "timeNeedToLearn": ""
    },
    {
        "id": "4",
        "id_category": "1",
        "isFavorite": "1",
        "lessonNameEnglish": "Business Planning",
        "lessonNameVietNamese": "Kế hoạch kinh doanh",
        "noteLessonEnglish": "",
        "percent_learned": "",
        "timeNeedToLearn": ""
    },
    {
        "id": "5",
        "id_category": "1",
        "isFavorite": "1",
        "lessonNameEnglish": "Conferences",
        "lessonNameVietNamese": "Hội nghị",
        "noteLessonEnglish": "",
        "percent_learned": "",
        "timeNeedToLearn": ""
    },
    {
        "id": "6",
        "id_category": "2",
        "isFavorite": "",
        "lessonNameEnglish": "Computers & the Internet",
        "lessonNameVietNamese": "Máy tính và mạng Internet",
        "noteLessonEnglish": "",
        "percent_learned": "",
        "timeNeedToLearn": ""
    },
    {
        "id": "7",
        "id_category": "2",
        "isFavorite": "",
        "lessonNameEnglish": "Office Technology",
        "lessonNameVietNamese": "Công nghệ công sở",
        "noteLessonEnglish": "",
        "percent_learned": "",
        "timeNeedToLearn": ""
    },
    {
        "id": "8",
        "id_category": "2",
        "isFavorite": "",
        "lessonNameEnglish": "Office Procedures",
        "lessonNameVietNamese": "Các qui trình trong công sở",
        "noteLessonEnglish": "",
        "percent_learned": "",
        "timeNeedToLearn": ""
    },
    {
        "id": "9",
        "id_category": "2",
        "isFavorite": "",
        "lessonNameEnglish": "Electronics",
        "lessonNameVietNamese": "Điện tử",
        "noteLessonEnglish": "",
        "percent_learned": "",
        "timeNeedToLearn": ""
    },
    {
        "id": "10",
        "id_category": "2",
        "isFavorite": "",
        "lessonNameEnglish": "Correspondence",
        "lessonNameVietNamese": "Thư tín thương mại",
        "noteLessonEnglish": "",
        "percent_learned": "",
        "timeNeedToLearn": ""
    },
    {
        "id": "11",
        "id_category": "3",
        "isFavorite": "",
        "lessonNameEnglish": "Job Ads & Recruitment",
        "lessonNameVietNamese": "Quảng cáo tìm người và tuyển dụng",
        "noteLessonEnglish": "",
        "percent_learned": "",
        "timeNeedToLearn": ""
    },
    {
        "id": "12",
        "id_category": "3",
        "isFavorite": "",
        "lessonNameEnglish": "Apply and Interviewing",
        "lessonNameVietNamese": "Ứng tuyển và phỏng vấn",
        "noteLessonEnglish": "",
        "percent_learned": "",
        "timeNeedToLearn": ""
    },
    {
        "id": "13",
        "id_category": "3",
        "isFavorite": "",
        "lessonNameEnglish": "Hiring and Training",
        "lessonNameVietNamese": "Tuyển dụng và đào tạo",
        "noteLessonEnglish": "",
        "percent_learned": "",
        "timeNeedToLearn": ""
    },
    {
        "id": "14",
        "id_category": "3",
        "isFavorite": "",
        "lessonNameEnglish": "Salaries & Benefits",
        "lessonNameVietNamese": "Lương và các chế độ ưu đãi",
        "noteLessonEnglish": "",
        "percent_learned": "",
        "timeNeedToLearn": ""
    },
    {
        "id": "15",
        "id_category": "3",
        "isFavorite": "",
        "lessonNameEnglish": "Promotions & Awards",
        "lessonNameVietNamese": "Thăng chức , lương hưu và thưởng",
        "noteLessonEnglish": "",
        "percent_learned": "",
        "timeNeedToLearn": ""
    },
    {
        "id": "16",
        "id_category": "4",
        "isFavorite": "",
        "lessonNameEnglish": "Shopping",
        "lessonNameVietNamese": "Mua sắm ",
        "noteLessonEnglish": "",
        "percent_learned": "",
        "timeNeedToLearn": ""
    },
    {
        "id": "17",
        "id_category": "4",
        "isFavorite": "",
        "lessonNameEnglish": "Ordering Supplies",
        "lessonNameVietNamese": "Đặt hàng",
        "noteLessonEnglish": "",
        "percent_learned": "",
        "timeNeedToLearn": ""
    },
    {
        "id": "18",
        "id_category": "4",
        "isFavorite": "",
        "lessonNameEnglish": "Shipping",
        "lessonNameVietNamese": "Giao hàng",
        "noteLessonEnglish": "",
        "percent_learned": "",
        "timeNeedToLearn": ""
    },
    {
        "id": "19",
        "id_category": "4",
        "isFavorite": "",
        "lessonNameEnglish": "Invoices",
        "lessonNameVietNamese": "In hóa đơn",
        "noteLessonEnglish": "",
        "percent_learned": "",
        "timeNeedToLearn": ""
    },
    {
        "id": "20",
        "id_category": "4",
        "isFavorite": "",
        "lessonNameEnglish": "Inventory",
        "lessonNameVietNamese": "Hàng hóa / Kiểm kê hàng hóa",
        "noteLessonEnglish": "",
        "percent_learned": "",
        "timeNeedToLearn": ""
    },
    {
        "id": "21",
        "id_category": "5",
        "isFavorite": "",
        "lessonNameEnglish": "Banking",
        "lessonNameVietNamese": "Ngân hàng",
        "noteLessonEnglish": "",
        "percent_learned": "",
        "timeNeedToLearn": ""
    },
    {
        "id": "22",
        "id_category": "5",
        "isFavorite": "",
        "lessonNameEnglish": "Accounting",
        "lessonNameVietNamese": "Kế toán",
        "noteLessonEnglish": "",
        "percent_learned": "",
        "timeNeedToLearn": ""
    },
    {
        "id": "23",
        "id_category": "5",
        "isFavorite": "",
        "lessonNameEnglish": "Investments",
        "lessonNameVietNamese": "Sự đầu tư",
        "noteLessonEnglish": "",
        "percent_learned": "",
        "timeNeedToLearn": ""
    },
    {
        "id": "24",
        "id_category": "5",
        "isFavorite": "",
        "lessonNameEnglish": "Taxes",
        "lessonNameVietNamese": "Thuế",
        "noteLessonEnglish": "",
        "percent_learned": "",
        "timeNeedToLearn": ""
    },
    {
        "id": "25",
        "id_category": "5",
        "isFavorite": "",
        "lessonNameEnglish": "Financial Statements",
        "lessonNameVietNamese": "Bản báo cáo tài chính",
        "noteLessonEnglish": "",
        "percent_learned": "",
        "timeNeedToLearn": ""
    },
    {
        "id": "26",
        "id_category": "6",
        "isFavorite": "",
        "lessonNameEnglish": "Property & Departments",
        "lessonNameVietNamese": "Bất động sản",
        "noteLessonEnglish": "",
        "percent_learned": "",
        "timeNeedToLearn": ""
    },
    {
        "id": "27",
        "id_category": "6",
        "isFavorite": "",
        "lessonNameEnglish": "Board Meeting",
        "lessonNameVietNamese": "Họp hội đồng quản trị và ban",
        "noteLessonEnglish": "",
        "percent_learned": "",
        "timeNeedToLearn": ""
    },
    {
        "id": "28",
        "id_category": "6",
        "isFavorite": "",
        "lessonNameEnglish": "Quality Control",
        "lessonNameVietNamese": "Ban quản lý chất lượng",
        "noteLessonEnglish": "",
        "percent_learned": "",
        "timeNeedToLearn": ""
    },
    {
        "id": "29",
        "id_category": "6",
        "isFavorite": "",
        "lessonNameEnglish": "Product Development",
        "lessonNameVietNamese": "Phát triển sản phẩm",
        "noteLessonEnglish": "",
        "percent_learned": "",
        "timeNeedToLearn": ""
    },
    {
        "id": "30",
        "id_category": "6",
        "isFavorite": "",
        "lessonNameEnglish": "Renting & Leasing",
        "lessonNameVietNamese": "Thuê và cho thuê",
        "noteLessonEnglish": "",
        "percent_learned": "",
        "timeNeedToLearn": ""
    },
    {
        "id": "31",
        "id_category": "7",
        "isFavorite": "",
        "lessonNameEnglish": "Selecting A Restaurant",
        "lessonNameVietNamese": "Chọn lựa nhà hàng",
        "noteLessonEnglish": "",
        "percent_learned": "",
        "timeNeedToLearn": ""
    },
    {
        "id": "32",
        "id_category": "7",
        "isFavorite": "",
        "lessonNameEnglish": "Eating Out",
        "lessonNameVietNamese": "Ăn bên ngoài",
        "noteLessonEnglish": "",
        "percent_learned": "",
        "timeNeedToLearn": ""
    },
    {
        "id": "33",
        "id_category": "7",
        "isFavorite": "",
        "lessonNameEnglish": "Ordering Lunch",
        "lessonNameVietNamese": "Đặt ăn trưa",
        "noteLessonEnglish": "",
        "percent_learned": "",
        "timeNeedToLearn": ""
    },
    {
        "id": "34",
        "id_category": "7",
        "isFavorite": "",
        "lessonNameEnglish": "Cooking As A Career",
        "lessonNameVietNamese": "Nghề nấu ăn",
        "noteLessonEnglish": "",
        "percent_learned": "",
        "timeNeedToLearn": ""
    },
    {
        "id": "35",
        "id_category": "7",
        "isFavorite": "",
        "lessonNameEnglish": "Events",
        "lessonNameVietNamese": "Sự kiện",
        "noteLessonEnglish": "",
        "percent_learned": "",
        "timeNeedToLearn": ""
    },
    {
        "id": "36",
        "id_category": "8",
        "isFavorite": "",
        "lessonNameEnglish": "General Travel",
        "lessonNameVietNamese": "Du lịch tổng quan",
        "noteLessonEnglish": "",
        "percent_learned": "",
        "timeNeedToLearn": ""
    },
    {
        "id": "37",
        "id_category": "8",
        "isFavorite": "",
        "lessonNameEnglish": "Airlines",
        "lessonNameVietNamese": "Hàng không",
        "noteLessonEnglish": "",
        "percent_learned": "",
        "timeNeedToLearn": ""
    },
    {
        "id": "38",
        "id_category": "8",
        "isFavorite": "",
        "lessonNameEnglish": "Trains",
        "lessonNameVietNamese": "Tàu điện",
        "noteLessonEnglish": "",
        "percent_learned": "",
        "timeNeedToLearn": ""
    },
    {
        "id": "39",
        "id_category": "8",
        "isFavorite": "",
        "lessonNameEnglish": "Hotels",
        "lessonNameVietNamese": "Khách sạn",
        "noteLessonEnglish": "",
        "percent_learned": "",
        "timeNeedToLearn": ""
    },
    {
        "id": "40",
        "id_category": "8",
        "isFavorite": "",
        "lessonNameEnglish": "Car Rentals",
        "lessonNameVietNamese": "Thuê xe hơi",
        "noteLessonEnglish": "",
        "percent_learned": "",
        "timeNeedToLearn": ""
    },
    {
        "id": "41",
        "id_category": "9",
        "isFavorite": "",
        "lessonNameEnglish": "Movies",
        "lessonNameVietNamese": "Phim",
        "noteLessonEnglish": "",
        "percent_learned": "",
        "timeNeedToLearn": ""
    },
    {
        "id": "42",
        "id_category": "9",
        "isFavorite": "",
        "lessonNameEnglish": "Theater",
        "lessonNameVietNamese": "Nhà hát",
        "noteLessonEnglish": "",
        "percent_learned": "",
        "timeNeedToLearn": ""
    },
    {
        "id": "43",
        "id_category": "9",
        "isFavorite": "",
        "lessonNameEnglish": "Music",
        "lessonNameVietNamese": "Âm nhạc",
        "noteLessonEnglish": "",
        "percent_learned": "",
        "timeNeedToLearn": ""
    },
    {
        "id": "44",
        "id_category": "9",
        "isFavorite": "",
        "lessonNameEnglish": "Museums",
        "lessonNameVietNamese": "Bảo tàng",
        "noteLessonEnglish": "",
        "percent_learned": "",
        "timeNeedToLearn": ""
    },
    {
        "id": "45",
        "id_category": "9",
        "isFavorite": "",
        "lessonNameEnglish": "Media",
        "lessonNameVietNamese": "Truyền thông",
        "noteLessonEnglish": "",
        "percent_learned": "",
        "timeNeedToLearn": ""
    },
    {
        "id": "46",
        "id_category": "10",
        "isFavorite": "",
        "lessonNameEnglish": "Doctor's Office",
        "lessonNameVietNamese": "Văn phòng bác sĩ",
        "noteLessonEnglish": "",
        "percent_learned": "",
        "timeNeedToLearn": ""
    },
    {
        "id": "47",
        "id_category": "10",
        "isFavorite": "",
        "lessonNameEnglish": "Dentist's Office",
        "lessonNameVietNamese": "Văn phòng nha sĩ ",
        "noteLessonEnglish": "",
        "percent_learned": "",
        "timeNeedToLearn": ""
    },
    {
        "id": "48",
        "id_category": "10",
        "isFavorite": "",
        "lessonNameEnglish": "Health",
        "lessonNameVietNamese": "Sức khỏe",
        "noteLessonEnglish": "",
        "percent_learned": "",
        "timeNeedToLearn": ""
    },
    {
        "id": "49",
        "id_category": "10",
        "isFavorite": "",
        "lessonNameEnglish": "Hospitals",
        "lessonNameVietNamese": "Bệnh viện",
        "noteLessonEnglish": "",
        "percent_learned": "",
        "timeNeedToLearn": ""
    },
    {
        "id": "50",
        "id_category": "10",
        "isFavorite": "",
        "lessonNameEnglish": "Pharmacy",
        "lessonNameVietNamese": "Ngành y dược",
        "noteLessonEnglish": "",
        "percent_learned": "",
        "timeNeedToLearn": ""
    }
]
